{
  "route": [
    [
      -64.389142,
      -33.11363,
      1.571
    ],
    [
      -64.388995,
      -33.11363,
      1.571
    ],
    [
      -64.38577,
      -33.114345,
      1.815
    ],
    [
      -64.38403,
      -33.11474,
      1.85
    ],
    [
      -64.383873,
      -33.11455,
      0.593
    ],
    [
      -64.383807,
      -33.114195,
      0.14
    ],
    [
      -64.383168,
      -33.112278,
      0.279
    ],
    [
      -64.382267,
      -33.109655,
      0.279
    ],
    [
      -64.38209,
      -33.109147,
      0.279
    ],
    [
      -64.381413,
      -33.107135,
      0.279
    ],
    [
      -64.381365,
      -33.107035,
      0.384
    ],
    [
      -64.384045,
      -33.106425,
      4.992
    ],
    [
      -64.384225,
      -33.106335,
      5.236
    ],
    [
      -64.384257,
      -33.10776,
      3.176
    ],
    [
      -64.383443,
      -33.107962,
      1.85
    ],
    [
      -64.382035,
      -33.108272,
      1.815
    ],
    [
      -64.382187,
      -33.109258,
      3.281
    ],
    [
      -64.38278,
      -33.109367,
      4.503
    ],
    [
      -64.380475,
      -33.109993,
      1.885
    ],
    [
      -64.379885,
      -33.110153,
      1.885
    ],
    [
      -64.379725,
      -33.11044,
      2.723
    ],
    [
      -64.379435,
      -33.1103,
      1.047
    ],
    [
      -64.379118,
      -33.11009,
      0.908
    ],
    [
      -64.37891,
      -33.109315,
      0.209
    ],
    [
      -64.378458,
      -33.108005,
      0.279
    ],
    [
      -64.377037,
      -33.103843,
      0.279
    ],
    [
      -64.37686,
      -33.103303,
      0.279
    ],
    [
      -64.37662,
      -33.10272,
      0.349
    ],
    [
      -64.376375,
      -33.102245,
      0.419
    ],
    [
      -64.375515,
      -33.101345,
      0.663
    ],
    [
      -64.37376,
      -33.09989,
      0.803
    ],
    [
      -64.372147,
      -33.099247,
      1.117
    ],
    [
      -64.36999,
      -33.098325,
      1.117
    ],
    [
      -64.367765,
      -33.09739,
      1.117
    ],
    [
      -64.366725,
      -33.097633,
      1.85
    ],
    [
      -64.366835,
      -33.097925,
      3.456
    ],
    [
      -64.366965,
      -33.098252,
      3.456
    ],
    [
      -64.367745,
      -33.100642,
      3.421
    ],
    [
      -64.368705,
      -33.103388,
      3.421
    ],
    [
      -64.36969,
      -33.106242,
      3.421
    ],
    [
      -64.37046,
      -33.108183,
      3.456
    ],
    [
      -64.370965,
      -33.109658,
      3.421
    ],
    [
      -64.371345,
      -33.11047,
      3.526
    ],
    [
      -64.37251,
      -33.11174,
      3.805
    ],
    [
      -64.373165,
      -33.112883,
      3.595
    ],
    [
      -64.374008,
      -33.114502,
      3.56
    ],
    [
      -64.374385,
      -33.115,
      3.7
    ],
    [
      -64.374818,
      -33.11585,
      3.56
    ],
    [
      -64.37532,
      -33.11682,
      3.56
    ],
    [
      -64.37374,
      -33.117242,
      1.885
    ],
    [
      -64.371618,
      -33.117747,
      1.85
    ],
    [
      -64.368507,
      -33.118503,
      1.85
    ],
    [
      -64.365615,
      -33.119193,
      1.85
    ],
    [
      -64.362375,
      -33.119963,
      1.85
    ],
    [
      -64.359527,
      -33.120633,
      1.85
    ],
    [
      -64.35718,
      -33.12121,
      1.85
    ],
    [
      -64.355077,
      -33.121732,
      1.85
    ],
    [
      -64.353232,
      -33.122175,
      1.85
    ],
    [
      -64.351397,
      -33.122617,
      1.85
    ],
    [
      -64.348835,
      -33.12315,
      1.85
    ],
    [
      -64.346497,
      -33.123787,
      1.815
    ],
    [
      -64.345275,
      -33.124028,
      1.815
    ],
    [
      -64.345598,
      -33.124938,
      3.421
    ],
    [
      -64.345945,
      -33.125985,
      3.421
    ],
    [
      -64.34502,
      -33.12615,
      1.78
    ],
    [
      -64.344603,
      -33.126588,
      2.478
    ],
    [
      -64.34316,
      -33.127745,
      2.339
    ],
    [
      -64.34139,
      -33.12916,
      2.339
    ],
    [
      -64.340175,
      -33.130105,
      2.304
    ],
    [
      -64.33985,
      -33.130272,
      2.129
    ],
    [
      -64.340073,
      -33.13058,
      3.7
    ],
    [
      -64.341193,
      -33.131608,
      3.875
    ],
    [
      -64.342998,
      -33.133288,
      3.875
    ],
    [
      -64.343478,
      -33.133773,
      3.84
    ],
    [
      -64.34204,
      -33.134942,
      2.339
    ],
    [
      -64.341503,
      -33.135305,
      2.269
    ],
    [
      -64.339797,
      -33.135665,
      1.815
    ],
    [
      -64.33712,
      -33.136258,
      1.815
    ],
    [
      -64.337045,
      -33.136367,
      2.618
    ],
    [
      -64.337697,
      -33.13832,
      3.421
    ],
    [
      -64.33756,
      -33.138423,
      2.304
    ],
    [
      -64.33423,
      -33.13927,
      1.85
    ],
    [
      -64.333095,
      -33.13945,
      1.745
    ],
    [
      -64.332428,
      -33.137512,
      0.279
    ],
    [
      -64.33241,
      -33.13731,
      0.07
    ],
    [
      -64.3295,
      -33.138028,
      1.85
    ],
    [
      -64.32769,
      -33.138443,
      1.85
    ],
    [
      -64.327692,
      -33.138752,
      3.142
    ],
    [
      -64.327633,
      -33.140297,
      3.107
    ],
    [
      -64.327655,
      -33.14068,
      3.176
    ],
    [
      -64.325975,
      -33.141078,
      1.85
    ],
    [
      -64.325555,
      -33.14112,
      1.676
    ],
    [
      -64.323955,
      -33.14153,
      1.85
    ],
    [
      -64.323835,
      -33.141153,
      0.279
    ],
    [
      -64.32358,
      -33.140413,
      0.279
    ],
    [
      -64.322882,
      -33.138283,
      0.279
    ],
    [
      -64.322458,
      -33.137015,
      0.279
    ],
    [
      -64.322332,
      -33.136902,
      0.768
    ],
    [
      -64.319522,
      -33.13758,
      1.85
    ],
    [
      -64.31707,
      -33.138138,
      1.85
    ],
    [
      -64.31457,
      -33.138715,
      1.85
    ],
    [
      -64.313385,
      -33.138957,
      1.815
    ],
    [
      -64.313242,
      -33.138768,
      0.559
    ],
    [
      -64.312652,
      -33.136842,
      0.244
    ]
  ],
  "stops": [
    {
      "code": "R098",
      "line": "50",
      "name": "T A",
      "color": "#ff0000",
      "lat": "-33.113630",
      "lon": "-64.389142",
      "stop_name": " San Martin y Calle 9  PL",
      "curso": "1.5707963268",
      "itinerario": "S",
      "client": 98,
      "direction": "I"
    },
    {
      "code": "R097",
      "line": "50",
      "name": "T A",
      "color": "#ff0000",
      "lat": "-33.114345",
      "lon": "-64.385770",
      "stop_name": "San Martin 2795",
      "curso": "1.8151424221",
      "itinerario": "S",
      "client": 98,
      "direction": "I"
    },
    {
      "code": "R094",
      "line": "50",
      "name": "T A",
      "color": "#ff0000",
      "lat": "-33.114550",
      "lon": "-64.383873",
      "stop_name": "Martin Fierro 695",
      "curso": "0.5934119457",
      "itinerario": "S",
      "client": 98,
      "direction": "I"
    },
    {
      "code": "R099",
      "line": "50",
      "name": "T A",
      "color": "#ff0000",
      "lat": "-33.112278",
      "lon": "-64.383168",
      "stop_name": "Martin Fierro 515",
      "curso": "0.2792526803",
      "itinerario": "S",
      "client": 98,
      "direction": "I"
    },
    {
      "code": "R102",
      "line": "50",
      "name": "T A",
      "color": "#ff0000",
      "lat": "-33.109655",
      "lon": "-64.382267",
      "stop_name": "Martin Fierro 305",
      "curso": "0.2792526803",
      "itinerario": "S",
      "client": 98,
      "direction": "I"
    },
    {
      "code": "R135",
      "line": "50",
      "name": "T A",
      "color": "#ff0000",
      "lat": "-33.109147",
      "lon": "-64.382090",
      "stop_name": "Martin Fierro 295",
      "curso": "0.2792526803",
      "itinerario": "S",
      "client": 98,
      "direction": "I"
    },
    {
      "code": "R131",
      "line": "50",
      "name": "T A",
      "color": "#ff0000",
      "lat": "-33.107135",
      "lon": "-64.381413",
      "stop_name": "Martin Fierro 115",
      "curso": "0.2792526803",
      "itinerario": "S",
      "client": 98,
      "direction": "I"
    },
    {
      "code": "R133",
      "line": "50",
      "name": "T A",
      "color": "#ff0000",
      "lat": "-33.106425",
      "lon": "-64.384045",
      "stop_name": "Perito Moreno 2890",
      "curso": "4.9916416607",
      "itinerario": "S",
      "client": 98,
      "direction": "I"
    },
    {
      "code": "R132",
      "line": "50",
      "name": "T A",
      "color": "#ff0000",
      "lat": "-33.107962",
      "lon": "-64.383443",
      "stop_name": "De las Postas 2815",
      "curso": "1.8500490071",
      "itinerario": "S",
      "client": 98,
      "direction": "I"
    },
    {
      "code": "R134",
      "line": "50",
      "name": "T A",
      "color": "#ff0000",
      "lat": "-33.109258",
      "lon": "-64.382187",
      "stop_name": "Martin Fierro 290",
      "curso": "3.2812189937",
      "itinerario": "S",
      "client": 98,
      "direction": "I"
    },
    {
      "code": "R104",
      "line": "50",
      "name": "T A",
      "color": "#ff0000",
      "lat": "-33.109993",
      "lon": "-64.380475",
      "stop_name": "Ruta 30 y Rio Deseado",
      "curso": "1.8849555922",
      "itinerario": "S",
      "client": 98,
      "direction": "I"
    },
    {
      "code": "R106",
      "line": "50",
      "name": "T A",
      "color": "#ff0000",
      "lat": "-33.110090",
      "lon": "-64.379118",
      "stop_name": "Rev. Padre Silvi 340",
      "curso": "0.9075712110",
      "itinerario": "S",
      "client": 98,
      "direction": "I"
    },
    {
      "code": "R108",
      "line": "50",
      "name": "T A",
      "color": "#ff0000",
      "lat": "-33.108005",
      "lon": "-64.378458",
      "stop_name": "Rev. Padre Silvi (Frente Cotolengo Don Orione)",
      "curso": "0.2792526803",
      "itinerario": "S",
      "client": 98,
      "direction": "I"
    },
    {
      "code": "R110",
      "line": "50",
      "name": "T A",
      "color": "#ff0000",
      "lat": "-33.103843",
      "lon": "-64.377037",
      "stop_name": " Rev. Padre Silvi y Guardias Nac.",
      "curso": "0.2792526803",
      "itinerario": "S",
      "client": 98,
      "direction": "I"
    },
    {
      "code": "R112",
      "line": "50",
      "name": "T A",
      "color": "#ff0000",
      "lat": "-33.101345",
      "lon": "-64.375515",
      "stop_name": "Rev. Padre Silvi y Lago Traful",
      "curso": "0.6632251158",
      "itinerario": "S",
      "client": 98,
      "direction": "I"
    },
    {
      "code": "R114",
      "line": "50",
      "name": "T A",
      "color": "#ff0000",
      "lat": "-33.099247",
      "lon": "-64.372147",
      "stop_name": "Rev. Padre Silvi y Rio Pilcomayo",
      "curso": "1.1170107213",
      "itinerario": "S",
      "client": 98,
      "direction": "I"
    },
    {
      "code": "R116",
      "line": "50",
      "name": "T A",
      "color": "#ff0000",
      "lat": "-33.098252",
      "lon": "-64.366965",
      "stop_name": "Tejerina Norte 985",
      "curso": "3.4557519189",
      "itinerario": "S",
      "client": 98,
      "direction": "I"
    },
    {
      "code": "R117",
      "line": "50",
      "name": "T A",
      "color": "#ff0000",
      "lat": "-33.100642",
      "lon": "-64.367745",
      "stop_name": " Tejerina Norte 795",
      "curso": "3.4208453339",
      "itinerario": "S",
      "client": 98,
      "direction": "I"
    },
    {
      "code": "R119",
      "line": "50",
      "name": "T A",
      "color": "#ff0000",
      "lat": "-33.103388",
      "lon": "-64.368705",
      "stop_name": "Tejerina Norte 495",
      "curso": "3.4208453339",
      "itinerario": "S",
      "client": 98,
      "direction": "I"
    },
    {
      "code": "R122",
      "line": "50",
      "name": "T A",
      "color": "#ff0000",
      "lat": "-33.106242",
      "lon": "-64.369690",
      "stop_name": "Tejerina Norte 275",
      "curso": "3.4208453339",
      "itinerario": "S",
      "client": 98,
      "direction": "I"
    },
    {
      "code": "R123",
      "line": "50",
      "name": "T A",
      "color": "#ff0000",
      "lat": "-33.108183",
      "lon": "-64.370460",
      "stop_name": "Tejerina Norte 101",
      "curso": "3.4557519189",
      "itinerario": "S",
      "client": 98,
      "direction": "I"
    },
    {
      "code": "R125",
      "line": "50",
      "name": "T A",
      "color": "#ff0000",
      "lat": "-33.112883",
      "lon": "-64.373165",
      "stop_name": "Cervantes 395",
      "curso": "3.5953782591",
      "itinerario": "S",
      "client": 98,
      "direction": "I"
    },
    {
      "code": "R127",
      "line": "50",
      "name": "T A",
      "color": "#ff0000",
      "lat": "-33.114502",
      "lon": "-64.374008",
      "stop_name": "Cervantes 505",
      "curso": "3.5604716741",
      "itinerario": "S",
      "client": 98,
      "direction": "I"
    },
    {
      "code": "R130",
      "line": "50",
      "name": "T A",
      "color": "#ff0000",
      "lat": "-33.117242",
      "lon": "-64.373740",
      "stop_name": "San Martin 2015",
      "curso": "1.8849555922",
      "itinerario": "S",
      "client": 98,
      "direction": "I"
    },
    {
      "code": "R085",
      "line": "50",
      "name": "T A",
      "color": "#ff0000",
      "lat": "-33.117747",
      "lon": "-64.371618",
      "stop_name": "San Martin 1883",
      "curso": "1.8500490071",
      "itinerario": "S",
      "client": 98,
      "direction": "I"
    },
    {
      "code": "R082",
      "line": "50",
      "name": "T A",
      "color": "#ff0000",
      "lat": "-33.118503",
      "lon": "-64.368507",
      "stop_name": " San Martin 1695",
      "curso": "1.8500490071",
      "itinerario": "S",
      "client": 98,
      "direction": "I"
    },
    {
      "code": "R080",
      "line": "50",
      "name": "T A",
      "color": "#ff0000",
      "lat": "-33.119193",
      "lon": "-64.365615",
      "stop_name": "San Martin 1489",
      "curso": "1.8500490071",
      "itinerario": "S",
      "client": 98,
      "direction": "I"
    },
    {
      "code": "R077",
      "line": "50",
      "name": "T A",
      "color": "#ff0000",
      "lat": "-33.119963",
      "lon": "-64.362375",
      "stop_name": "San Martin 1295 ",
      "curso": "1.8500490071",
      "itinerario": "S",
      "client": 98,
      "direction": "I"
    },
    {
      "code": "R075",
      "line": "50",
      "name": "T A",
      "color": "#ff0000",
      "lat": "-33.120633",
      "lon": "-64.359527",
      "stop_name": "San Martin 1097",
      "curso": "1.8500490071",
      "itinerario": "S",
      "client": 98,
      "direction": "I"
    },
    {
      "code": "R073",
      "line": "50",
      "name": "T A",
      "color": "#ff0000",
      "lat": "-33.121210",
      "lon": "-64.357180",
      "stop_name": "San Martin 887",
      "curso": "1.8500490071",
      "itinerario": "S",
      "client": 98,
      "direction": "I"
    },
    {
      "code": "R071",
      "line": "50",
      "name": "T A",
      "color": "#ff0000",
      "lat": "-33.121732",
      "lon": "-64.355077",
      "stop_name": " San Martin 695",
      "curso": "1.8500490071",
      "itinerario": "S",
      "client": 98,
      "direction": "I"
    },
    {
      "code": "R069",
      "line": "50",
      "name": "T A",
      "color": "#ff0000",
      "lat": "-33.122175",
      "lon": "-64.353232",
      "stop_name": " San Martin 487",
      "curso": "1.8500490071",
      "itinerario": "S",
      "client": 98,
      "direction": "I"
    },
    {
      "code": "R066",
      "line": "50",
      "name": "T A",
      "color": "#ff0000",
      "lat": "-33.122617",
      "lon": "-64.351397",
      "stop_name": " San Martin 305",
      "curso": "1.8500490071",
      "itinerario": "S",
      "client": 98,
      "direction": "I"
    },
    {
      "code": "R062",
      "line": "50",
      "name": "T A",
      "color": "#ff0000",
      "lat": "-33.123150",
      "lon": "-64.348835",
      "stop_name": "San Martin 45 PL",
      "curso": "1.8500490071",
      "itinerario": "S",
      "client": 98,
      "direction": "I"
    },
    {
      "code": "R145",
      "line": "50",
      "name": "T A",
      "color": "#ff0000",
      "lat": "-33.123787",
      "lon": "-64.346497",
      "stop_name": "Belgrano 190",
      "curso": "1.8151424221",
      "itinerario": "S",
      "client": 98,
      "direction": "I"
    },
    {
      "code": "R153",
      "line": "50",
      "name": "T A",
      "color": "#ff0000",
      "lat": "-33.124938",
      "lon": "-64.345598",
      "stop_name": "Alberdi 780",
      "curso": "3.4208453339",
      "itinerario": "S",
      "client": 98,
      "direction": "I"
    },
    {
      "code": "R158",
      "line": "50",
      "name": "T A",
      "color": "#ff0000",
      "lat": "-33.126588",
      "lon": "-64.344603",
      "stop_name": " Bv. Roca 440",
      "curso": "2.4783675378",
      "itinerario": "S",
      "client": 98,
      "direction": "I"
    },
    {
      "code": "R161",
      "line": "50",
      "name": "T A",
      "color": "#ff0000",
      "lat": "-33.127745",
      "lon": "-64.343160",
      "stop_name": "Bv. Roca 610",
      "curso": "2.3387411977",
      "itinerario": "S",
      "client": 98,
      "direction": "I"
    },
    {
      "code": "R162",
      "line": "50",
      "name": "T A",
      "color": "#ff0000",
      "lat": "-33.129160",
      "lon": "-64.341390",
      "stop_name": "Bv. Roca 810",
      "curso": "2.3387411977",
      "itinerario": "S",
      "client": 98,
      "direction": "I"
    },
    {
      "code": "R166",
      "line": "50",
      "name": "T A",
      "color": "#ff0000",
      "lat": "-33.130580",
      "lon": "-64.340073",
      "stop_name": " Bv. Ameghino 1140",
      "curso": "3.7000980142",
      "itinerario": "S",
      "client": 98,
      "direction": "I"
    },
    {
      "code": "R177",
      "line": "50",
      "name": "T A",
      "color": "#ff0000",
      "lat": "-33.131608",
      "lon": "-64.341193",
      "stop_name": "Bv. Ameghino 1280",
      "curso": "3.8746309394",
      "itinerario": "S",
      "client": 98,
      "direction": "I"
    },
    {
      "code": "R180",
      "line": "50",
      "name": "T A",
      "color": "#ff0000",
      "lat": "-33.133288",
      "lon": "-64.342998",
      "stop_name": "Bv. Ameghino 1480",
      "curso": "3.8746309394",
      "itinerario": "S",
      "client": 98,
      "direction": "I"
    },
    {
      "code": "R030",
      "line": "50",
      "name": "T A",
      "color": "#ff0000",
      "lat": "-33.134942",
      "lon": "-64.342040",
      "stop_name": "Pedro goyena 80",
      "curso": "2.3387411977",
      "itinerario": "S",
      "client": 98,
      "direction": "I"
    },
    {
      "code": "R031",
      "line": "50",
      "name": "T A",
      "color": "#ff0000",
      "lat": "-33.135665",
      "lon": "-64.339797",
      "stop_name": "Pedro Goyena 206",
      "curso": "1.8151424221",
      "itinerario": "S",
      "client": 98,
      "direction": "I"
    },
    {
      "code": "R035",
      "line": "50",
      "name": "T A",
      "color": "#ff0000",
      "lat": "-33.136258",
      "lon": "-64.337120",
      "stop_name": "Pedro Goyena 380",
      "curso": "1.8151424221",
      "itinerario": "S",
      "client": 98,
      "direction": "I"
    },
    {
      "code": "R036",
      "line": "50",
      "name": "T A",
      "color": "#ff0000",
      "lat": "-33.138320",
      "lon": "-64.337697",
      "stop_name": "Leandro Alem 680",
      "curso": "3.4208453339",
      "itinerario": "S",
      "client": 98,
      "direction": "I"
    },
    {
      "code": "R038",
      "line": "50",
      "name": "T A",
      "color": "#ff0000",
      "lat": "-33.139270",
      "lon": "-64.334230",
      "stop_name": "P. Peron Este 610",
      "curso": "1.8500490071",
      "itinerario": "S",
      "client": 98,
      "direction": "I"
    },
    {
      "code": "R040",
      "line": "50",
      "name": "T A",
      "color": "#ff0000",
      "lat": "-33.137512",
      "lon": "-64.332428",
      "stop_name": " Chiclana 519",
      "curso": "0.2792526803",
      "itinerario": "S",
      "client": 98,
      "direction": "I"
    },
    {
      "code": "R042",
      "line": "50",
      "name": "T A",
      "color": "#ff0000",
      "lat": "-33.138028",
      "lon": "-64.329500",
      "stop_name": "Pedro Goyena 890",
      "curso": "1.8500490071",
      "itinerario": "S",
      "client": 98,
      "direction": "I"
    },
    {
      "code": "R043",
      "line": "50",
      "name": "T A",
      "color": "#ff0000",
      "lat": "-33.138752",
      "lon": "-64.327692",
      "stop_name": "Malabia 510",
      "curso": "3.1415926536",
      "itinerario": "S",
      "client": 98,
      "direction": "I"
    },
    {
      "code": "R044",
      "line": "50",
      "name": "T A",
      "color": "#ff0000",
      "lat": "-33.140297",
      "lon": "-64.327633",
      "stop_name": "Malabia 680",
      "curso": "3.1066860685",
      "itinerario": "S",
      "client": 98,
      "direction": "I"
    },
    {
      "code": "R048",
      "line": "50",
      "name": "T A",
      "color": "#ff0000",
      "lat": "-33.141078",
      "lon": "-64.325975",
      "stop_name": "P. Peron Este 1160",
      "curso": "1.8500490071",
      "itinerario": "S",
      "client": 98,
      "direction": "I"
    },
    {
      "code": "R051",
      "line": "50",
      "name": "T A",
      "color": "#ff0000",
      "lat": "-33.141153",
      "lon": "-64.323835",
      "stop_name": "Joaquin V. Gonzalez 695",
      "curso": "0.2792526803",
      "itinerario": "S",
      "client": 98,
      "direction": "I"
    },
    {
      "code": "R052",
      "line": "50",
      "name": "T A",
      "color": "#ff0000",
      "lat": "-33.140413",
      "lon": "-64.323580",
      "stop_name": " Joaquin V. Gonzalez 609",
      "curso": "0.2792526803",
      "itinerario": "S",
      "client": 98,
      "direction": "I"
    },
    {
      "code": "R054",
      "line": "50",
      "name": "T A",
      "color": "#ff0000",
      "lat": "-33.138283",
      "lon": "-64.322882",
      "stop_name": "Joaquin V. Gonzalez 405",
      "curso": "0.2792526803",
      "itinerario": "S",
      "client": 98,
      "direction": "I"
    },
    {
      "code": "R056",
      "line": "50",
      "name": "T A",
      "color": "#ff0000",
      "lat": "-33.137015",
      "lon": "-64.322458",
      "stop_name": "Joaquin V. Gonzalez 305",
      "curso": "0.2792526803",
      "itinerario": "S",
      "client": 98,
      "direction": "I"
    },
    {
      "code": "R059",
      "line": "50",
      "name": "T A",
      "color": "#ff0000",
      "lat": "-33.137580",
      "lon": "-64.319522",
      "stop_name": "V. Lopez y Planes 1448",
      "curso": "1.8500490071",
      "itinerario": "S",
      "client": 98,
      "direction": "I"
    },
    {
      "code": "R060",
      "line": "50",
      "name": "T A",
      "color": "#ff0000",
      "lat": "-33.138138",
      "lon": "-64.317070",
      "stop_name": "V. Lopez y Planes 1650",
      "curso": "1.8500490071",
      "itinerario": "S",
      "client": 98,
      "direction": "I"
    },
    {
      "code": "R028",
      "line": "50",
      "name": "T A",
      "color": "#ff0000",
      "lat": "-33.138715",
      "lon": "-64.314570",
      "stop_name": "V. Lopez y Planes 1820",
      "curso": "1.8500490071",
      "itinerario": "S",
      "client": 98,
      "direction": "I"
    },
    {
      "code": "R007",
      "line": "50",
      "name": "T A",
      "color": "#ff0000",
      "lat": "-33.138768",
      "lon": "-64.313242",
      "stop_name": "Pirovano 285",
      "curso": "0.5585053606",
      "itinerario": "N",
      "client": 98,
      "direction": "I"
    },
    {
      "code": "R026",
      "line": "50",
      "name": "T A",
      "color": "#ff0000",
      "lat": "-33.136842",
      "lon": "-64.312652",
      "stop_name": "Pirovano 110 PL",
      "curso": "0.2443460953",
      "itinerario": "S",
      "client": 98,
      "direction": "I"
    }
  ],
  "color": "#f10410",
  "direction": "I",
  "notification": "",
  "notifications": []
}