{
  "route": [
    [
      -64.359192,
      -33.113315,
      2.269
    ],
    [
      -64.358917,
      -33.113517,
      2.269
    ],
    [
      -64.358658,
      -33.112687,
      0.244
    ],
    [
      -64.360202,
      -33.112187,
      5.096
    ],
    [
      -64.360047,
      -33.111928,
      0.454
    ],
    [
      -64.35965,
      -33.11052,
      0.244
    ],
    [
      -64.359358,
      -33.109933,
      0.384
    ],
    [
      -64.359345,
      -33.109613,
      0.035
    ],
    [
      -64.357752,
      -33.110013,
      1.85
    ],
    [
      -64.357337,
      -33.108662,
      0.244
    ],
    [
      -64.357048,
      -33.108823,
      2.164
    ],
    [
      -64.35516,
      -33.109268,
      1.85
    ],
    [
      -64.354513,
      -33.109388,
      1.78
    ],
    [
      -64.354302,
      -33.110908,
      3.037
    ],
    [
      -64.353767,
      -33.111408,
      2.409
    ],
    [
      -64.353392,
      -33.111787,
      2.443
    ],
    [
      -64.352008,
      -33.113243,
      2.478
    ],
    [
      -64.352373,
      -33.113355,
      4.363
    ],
    [
      -64.353997,
      -33.114115,
      4.189
    ],
    [
      -64.353553,
      -33.115162,
      2.793
    ],
    [
      -64.353453,
      -33.115297,
      2.583
    ],
    [
      -64.35222,
      -33.117287,
      2.653
    ],
    [
      -64.352047,
      -33.11747,
      2.478
    ],
    [
      -64.350237,
      -33.119258,
      2.443
    ],
    [
      -64.349987,
      -33.119292,
      1.71
    ],
    [
      -64.348518,
      -33.119608,
      1.815
    ],
    [
      -64.348307,
      -33.119663,
      1.885
    ],
    [
      -64.348795,
      -33.121258,
      3.386
    ],
    [
      -64.34937,
      -33.123098,
      3.386
    ],
    [
      -64.348835,
      -33.12315,
      1.92
    ]
  ],
  "stops": [
    {
      "code": "R248",
      "line": "38",
      "name": "R N",
      "color": "#6597e6",
      "lat": "-33.113315",
      "lon": "-64.359192",
      "stop_name": "Cerro Fitz Roy 1290 PL",
      "curso": "2.2689280276",
      "itinerario": "S",
      "client": 98,
      "direction": "V"
    },
    {
      "code": "R249",
      "line": "38",
      "name": "R N",
      "color": "#6597e6",
      "lat": "-33.112687",
      "lon": "-64.358658",
      "stop_name": "Estrada Norte 30",
      "curso": "0.2443460953",
      "itinerario": "S",
      "client": 98,
      "direction": "V"
    },
    {
      "code": "R250",
      "line": "38",
      "name": "R N",
      "color": "#6597e6",
      "lat": "-33.111928",
      "lon": "-64.360047",
      "stop_name": "Ing. Dinkeldein Norte 10",
      "curso": "0.4537856055",
      "itinerario": "S",
      "client": 98,
      "direction": "V"
    },
    {
      "code": "R246",
      "line": "38",
      "name": "R N",
      "color": "#6597e6",
      "lat": "-33.109933",
      "lon": "-64.359358",
      "stop_name": " Ing. Dinkeldein Norte 220",
      "curso": "0.3839724354",
      "itinerario": "S",
      "client": 98,
      "direction": "V"
    },
    {
      "code": "R244",
      "line": "38",
      "name": "R N",
      "color": "#6597e6",
      "lat": "-33.108823",
      "lon": "-64.357048",
      "stop_name": "Guardias Nac. 1195",
      "curso": "2.1642082725",
      "itinerario": "S",
      "client": 98,
      "direction": "V"
    },
    {
      "code": "R241",
      "line": "38",
      "name": "R N",
      "color": "#6597e6",
      "lat": "-33.109268",
      "lon": "-64.355160",
      "stop_name": "Guardias Nac. 1015 ( Nuevo Hospital)",
      "curso": "1.8500490071",
      "itinerario": "S",
      "client": 98,
      "direction": "V"
    },
    {
      "code": "R240",
      "line": "38",
      "name": "R N",
      "color": "#6597e6",
      "lat": "-33.111787",
      "lon": "-64.353392",
      "stop_name": "Pedro Zanni 775",
      "curso": "2.4434609528",
      "itinerario": "S",
      "client": 98,
      "direction": "V"
    },
    {
      "code": "R236",
      "line": "38",
      "name": "R N",
      "color": "#6597e6",
      "lat": "-33.113355",
      "lon": "-64.352373",
      "stop_name": "Piedras Blancas 640",
      "curso": "4.3633231300",
      "itinerario": "S",
      "client": 98,
      "direction": "V"
    },
    {
      "code": "R234",
      "line": "38",
      "name": "R N",
      "color": "#6597e6",
      "lat": "-33.115162",
      "lon": "-64.353553",
      "stop_name": "Av. Guillermo Marconi 205",
      "curso": "2.7925268032",
      "itinerario": "S",
      "client": 98,
      "direction": "V"
    },
    {
      "code": "R232",
      "line": "38",
      "name": "R N",
      "color": "#6597e6",
      "lat": "-33.117287",
      "lon": "-64.352220",
      "stop_name": "Av. Guillermo Marconi 555",
      "curso": "2.6529004630",
      "itinerario": "S",
      "client": 98,
      "direction": "V"
    },
    {
      "code": "R224",
      "line": "38",
      "name": "R N",
      "color": "#6597e6",
      "lat": "-33.119292",
      "lon": "-64.349987",
      "stop_name": "San Juan 295",
      "curso": "1.7104226670",
      "itinerario": "S",
      "client": 98,
      "direction": "V"
    },
    {
      "code": "R222",
      "line": "38",
      "name": "R N",
      "color": "#6597e6",
      "lat": "-33.119608",
      "lon": "-64.348518",
      "stop_name": "San Juan 115",
      "curso": "1.8151424221",
      "itinerario": "S",
      "client": 98,
      "direction": "V"
    },
    {
      "code": "R221",
      "line": "38",
      "name": "R N",
      "color": "#6597e6",
      "lat": "-33.121258",
      "lon": "-64.348795",
      "stop_name": "Constitucion 490",
      "curso": "3.3859387489",
      "itinerario": "S",
      "client": 98,
      "direction": "V"
    },
    {
      "code": "R062",
      "line": "38",
      "name": "R N",
      "color": "#6597e6",
      "lat": "-33.123150",
      "lon": "-64.348835",
      "stop_name": "San Martin 45 PL",
      "curso": "1.9198621772",
      "itinerario": "S",
      "client": 98,
      "direction": "V"
    }
  ],
  "color": "#f10410",
  "direction": "V",
  "notification": "",
  "notifications": []
}