{
  "route": [
    [
      -64.368735,
      -33.103753,
      0.279
    ],
    [
      -64.367825,
      -33.101008,
      0.279
    ],
    [
      -64.366822,
      -33.097957,
      0.279
    ],
    [
      -64.36678,
      -33.097605,
      0.105
    ],
    [
      -64.367715,
      -33.097405,
      4.957
    ],
    [
      -64.37231,
      -33.099285,
      4.259
    ],
    [
      -64.373683,
      -33.09996,
      4.189
    ],
    [
      -64.374735,
      -33.100592,
      4.084
    ],
    [
      -64.375585,
      -33.10137,
      3.875
    ],
    [
      -64.376015,
      -33.101915,
      3.735
    ],
    [
      -64.376553,
      -33.1026,
      3.735
    ],
    [
      -64.37723,
      -33.104318,
      3.456
    ],
    [
      -64.378005,
      -33.106735,
      3.421
    ],
    [
      -64.378525,
      -33.108075,
      3.456
    ],
    [
      -64.378985,
      -33.10959,
      3.386
    ],
    [
      -64.379187,
      -33.110137,
      3.456
    ],
    [
      -64.379377,
      -33.110213,
      4.259
    ],
    [
      -64.379427,
      -33.109937,
      6.144
    ],
    [
      -64.379678,
      -33.109868,
      5.027
    ],
    [
      -64.379877,
      -33.110068,
      3.84
    ],
    [
      -64.38019,
      -33.110052,
      4.782
    ],
    [
      -64.381158,
      -33.109752,
      5.061
    ],
    [
      -64.382232,
      -33.10951,
      4.957
    ],
    [
      -64.38209,
      -33.109147,
      0.314
    ],
    [
      -64.381413,
      -33.107135,
      0.279
    ],
    [
      -64.381402,
      -33.107077,
      0.175
    ],
    [
      -64.384045,
      -33.106425,
      4.992
    ],
    [
      -64.385102,
      -33.106142,
      5.027
    ],
    [
      -64.385125,
      -33.107538,
      3.142
    ],
    [
      -64.383443,
      -33.107962,
      1.85
    ],
    [
      -64.381797,
      -33.108351999999996,
      1.85
    ],
    [
      -64.382187,
      -33.109258,
      3.491
    ],
    [
      -64.38223,
      -33.109495,
      3.316
    ],
    [
      -64.385048,
      -33.108747,
      5.027
    ],
    [
      -64.385222,
      -33.108575,
      5.585
    ],
    [
      -64.386285,
      -33.108145,
      5.166
    ],
    [
      -64.38733,
      -33.107992,
      4.887
    ],
    [
      -64.401028,
      -33.10759,
      4.747
    ],
    [
      -64.407258,
      -33.10745,
      4.747
    ],
    [
      -64.407253,
      -33.107818,
      3.142
    ],
    [
      -64.407302,
      -33.11106,
      3.142
    ],
    [
      -64.407033,
      -33.111108,
      1.78
    ],
    [
      -64.401917,
      -33.11174,
      1.71
    ],
    [
      -64.399218,
      -33.112058,
      1.71
    ],
    [
      -64.397568,
      -33.107838,
      0.314
    ],
    [
      -64.397498,
      -33.1077,
      0.384
    ],
    [
      -64.394495,
      -33.107877,
      1.641
    ],
    [
      -64.394747,
      -33.107753,
      5.236
    ],
    [
      -64.38683,
      -33.108028,
      1.606
    ],
    [
      -64.384635,
      -33.108932,
      2.025
    ],
    [
      -64.382233,
      -33.109557,
      1.885
    ],
    [
      -64.382337,
      -33.109735,
      3.595
    ],
    [
      -64.383147,
      -33.112053,
      3.421
    ],
    [
      -64.38404,
      -33.114672,
      3.421
    ],
    [
      -64.384032,
      -33.114722,
      3.037
    ],
    [
      -64.385695,
      -33.114332,
      4.992
    ],
    [
      -64.386402,
      -33.1141,
      5.096
    ],
    [
      -64.38915,
      -33.113487,
      4.957
    ],
    [
      -64.389142,
      -33.11363,
      3.107
    ],
    [
      -64.387322,
      -33.113978,
      1.78
    ],
    [
      -64.38577,
      -33.114345,
      1.85
    ],
    [
      -64.383455,
      -33.114855,
      1.815
    ],
    [
      -64.381695,
      -33.115342,
      1.885
    ],
    [
      -64.381645,
      -33.115495,
      2.862
    ],
    [
      -64.38155,
      -33.115573,
      2.374
    ],
    [
      -64.38133,
      -33.115585,
      1.641
    ],
    [
      -64.381245,
      -33.115515,
      0.803
    ],
    [
      -64.381,
      -33.115465,
      1.326
    ],
    [
      -64.379578,
      -33.115832,
      1.885
    ],
    [
      -64.37771,
      -33.116295,
      1.85
    ],
    [
      -64.376127,
      -33.11667,
      1.85
    ],
    [
      -64.37374,
      -33.117242,
      1.85
    ],
    [
      -64.371618,
      -33.117747,
      1.85
    ],
    [
      -64.368507,
      -33.118503,
      1.85
    ],
    [
      -64.365615,
      -33.119193,
      1.85
    ],
    [
      -64.362375,
      -33.119963,
      1.85
    ],
    [
      -64.359527,
      -33.120633,
      1.85
    ],
    [
      -64.35718,
      -33.12121,
      1.85
    ],
    [
      -64.355077,
      -33.121732,
      1.85
    ],
    [
      -64.353232,
      -33.122175,
      1.85
    ],
    [
      -64.351397,
      -33.122617,
      1.85
    ],
    [
      -64.349425,
      -33.123043,
      1.815
    ],
    [
      -64.348835,
      -33.12315,
      1.99
    ],
    [
      -64.347525,
      -33.123488,
      1.78
    ],
    [
      -64.346497,
      -33.123787,
      1.92
    ],
    [
      -64.345263,
      -33.12402,
      1.78
    ],
    [
      -64.345598,
      -33.124938,
      3.421
    ],
    [
      -64.34593,
      -33.12597,
      3.421
    ],
    [
      -64.3451,
      -33.126137,
      1.815
    ],
    [
      -64.344603,
      -33.126588,
      2.409
    ],
    [
      -64.34316,
      -33.127745,
      2.339
    ],
    [
      -64.34139,
      -33.12916,
      2.339
    ],
    [
      -64.339815,
      -33.130408,
      2.339
    ],
    [
      -64.337767,
      -33.12854,
      0.733
    ],
    [
      -64.337225,
      -33.127995,
      0.698
    ],
    [
      -64.335432,
      -33.128425,
      1.85
    ],
    [
      -64.33449,
      -33.128605,
      1.78
    ],
    [
      -64.334848,
      -33.129565,
      3.456
    ],
    [
      -64.335323,
      -33.131148,
      3.386
    ],
    [
      -64.333887,
      -33.13149,
      1.85
    ],
    [
      -64.332178,
      -33.131867,
      1.815
    ],
    [
      -64.330893,
      -33.132193,
      1.85
    ],
    [
      -64.327882,
      -33.132867,
      1.815
    ],
    [
      -64.324915,
      -33.133572,
      1.85
    ],
    [
      -64.32175,
      -33.134302,
      1.85
    ],
    [
      -64.318682,
      -33.135012,
      1.85
    ],
    [
      -64.315283,
      -33.13579,
      1.85
    ],
    [
      -64.312432,
      -33.13642,
      1.815
    ],
    [
      -64.312652,
      -33.136842,
      3.63
    ]
  ],
  "stops": [
    {
      "code": "R120",
      "line": "48",
      "name": "T B",
      "color": "#ff0000",
      "lat": "-33.103753",
      "lon": "-64.368735",
      "stop_name": "Tejerina Norte 490 PL",
      "curso": "0.2792526803",
      "itinerario": "S",
      "client": 98,
      "direction": "I"
    },
    {
      "code": "R118",
      "line": "48",
      "name": "T B",
      "color": "#ff0000",
      "lat": "-33.101008",
      "lon": "-64.367825",
      "stop_name": "W. Tejerina 780",
      "curso": "0.2792526803",
      "itinerario": "S",
      "client": 98,
      "direction": "I"
    },
    {
      "code": "R115",
      "line": "48",
      "name": "T B",
      "color": "#ff0000",
      "lat": "-33.097957",
      "lon": "-64.366822",
      "stop_name": "W. Tejerina 1020",
      "curso": "0.2792526803",
      "itinerario": "S",
      "client": 98,
      "direction": "I"
    },
    {
      "code": "R113",
      "line": "48",
      "name": "T B",
      "color": "#ff0000",
      "lat": "-33.099285",
      "lon": "-64.372310",
      "stop_name": "Rev. Padre Silvi y Rio Pilcomayo (a Ruta 30)",
      "curso": "4.2586033749",
      "itinerario": "S",
      "client": 98,
      "direction": "I"
    },
    {
      "code": "R111",
      "line": "48",
      "name": "T B",
      "color": "#ff0000",
      "lat": "-33.101370",
      "lon": "-64.375585",
      "stop_name": "Rev. Padre Silvi y Lago Traful (a Ruta 30)",
      "curso": "3.8746309394",
      "itinerario": "S",
      "client": 98,
      "direction": "I"
    },
    {
      "code": "R109",
      "line": "48",
      "name": "T B",
      "color": "#ff0000",
      "lat": "-33.104318",
      "lon": "-64.377230",
      "stop_name": "Rev. Padre Silvi y Guardias Nac. (a Ruta 30)",
      "curso": "3.4557519189",
      "itinerario": "S",
      "client": 98,
      "direction": "I"
    },
    {
      "code": "R107",
      "line": "48",
      "name": "T B",
      "color": "#ff0000",
      "lat": "-33.108075",
      "lon": "-64.378525",
      "stop_name": "Rev. Padre Silvi (direction a Ruta 30)",
      "curso": "3.4557519189",
      "itinerario": "S",
      "client": 98,
      "direction": "I"
    },
    {
      "code": "R105",
      "line": "48",
      "name": "T B",
      "color": "#ff0000",
      "lat": "-33.110137",
      "lon": "-64.379187",
      "stop_name": "Rev. Padre Silvi 341",
      "curso": "3.4557519189",
      "itinerario": "S",
      "client": 98,
      "direction": "I"
    },
    {
      "code": "R103",
      "line": "48",
      "name": "T B",
      "color": "#ff0000",
      "lat": "-33.109752",
      "lon": "-64.381158",
      "stop_name": "Ruta 30 y Rio Deseado",
      "curso": "5.0614548308",
      "itinerario": "S",
      "client": 98,
      "direction": "I"
    },
    {
      "code": "R135",
      "line": "48",
      "name": "T B",
      "color": "#ff0000",
      "lat": "-33.109147",
      "lon": "-64.382090",
      "stop_name": "Martin Fierro 295",
      "curso": "0.3141592654",
      "itinerario": "S",
      "client": 98,
      "direction": "I"
    },
    {
      "code": "R131",
      "line": "48",
      "name": "T B",
      "color": "#ff0000",
      "lat": "-33.107135",
      "lon": "-64.381413",
      "stop_name": "Martin Fierro 115",
      "curso": "0.2792526803",
      "itinerario": "S",
      "client": 98,
      "direction": "I"
    },
    {
      "code": "R133",
      "line": "48",
      "name": "T B",
      "color": "#ff0000",
      "lat": "-33.106425",
      "lon": "-64.384045",
      "stop_name": "Perito Moreno 2890",
      "curso": "4.9916416607",
      "itinerario": "S",
      "client": 98,
      "direction": "I"
    },
    {
      "code": "R132",
      "line": "48",
      "name": "T B",
      "color": "#ff0000",
      "lat": "-33.107962",
      "lon": "-64.383443",
      "stop_name": "De las Postas 2815",
      "curso": "1.8500490071",
      "itinerario": "S",
      "client": 98,
      "direction": "I"
    },
    {
      "code": "R134",
      "line": "48",
      "name": "T B",
      "color": "#ff0000",
      "lat": "-33.109258",
      "lon": "-64.382187",
      "stop_name": "Martin Fierro 290",
      "curso": "3.4906585040",
      "itinerario": "S",
      "client": 98,
      "direction": "I"
    },
    {
      "code": "R136",
      "line": "48",
      "name": "T B",
      "color": "#ff0000",
      "lat": "-33.108747",
      "lon": "-64.385048",
      "stop_name": "Ruta 30 esq. Islas Orcadas",
      "curso": "5.0265482457",
      "itinerario": "S",
      "client": 98,
      "direction": "I"
    },
    {
      "code": "R137",
      "line": "48",
      "name": "T B",
      "color": "#ff0000",
      "lat": "-33.108145",
      "lon": "-64.386285",
      "stop_name": "Ruta 30 (Planta EPEC)",
      "curso": "5.1661745859",
      "itinerario": "S",
      "client": 98,
      "direction": "I"
    },
    {
      "code": "R141",
      "line": "48",
      "name": "T B",
      "color": "#ff0000",
      "lat": "-33.107590",
      "lon": "-64.401028",
      "stop_name": "Ruta 30 (Perpetual)",
      "curso": "4.7472955654",
      "itinerario": "S",
      "client": 98,
      "direction": "I"
    },
    {
      "code": "R142",
      "line": "48",
      "name": "T B",
      "color": "#ff0000",
      "lat": "-33.107818",
      "lon": "-64.407253",
      "stop_name": "Lito Fico y Ruta 30",
      "curso": "3.1415926536",
      "itinerario": "S",
      "client": 98,
      "direction": "I"
    },
    {
      "code": "R143",
      "line": "48",
      "name": "T B",
      "color": "#ff0000",
      "lat": "-33.111108",
      "lon": "-64.407033",
      "stop_name": "Juan Floriani y Lito Fico",
      "curso": "1.7802358370",
      "itinerario": "S",
      "client": 98,
      "direction": "I"
    },
    {
      "code": "R144",
      "line": "48",
      "name": "T B",
      "color": "#ff0000",
      "lat": "-33.111740",
      "lon": "-64.401917",
      "stop_name": "Juan Floriani 3745 (Ingreso a Soles)",
      "curso": "1.7104226670",
      "itinerario": "S",
      "client": 98,
      "direction": "I"
    },
    {
      "code": "R140",
      "line": "48",
      "name": "T B",
      "color": "#ff0000",
      "lat": "-33.107838",
      "lon": "-64.397568",
      "stop_name": "18 de Marzo y Ruta 30",
      "curso": "0.3141592654",
      "itinerario": "S",
      "client": 98,
      "direction": "I"
    },
    {
      "code": "R138",
      "line": "48",
      "name": "T B",
      "color": "#ff0000",
      "lat": "-33.107877",
      "lon": "-64.394495",
      "stop_name": "Ruta 30 (BnS. Esteban desde Soles)",
      "curso": "1.6406094969",
      "itinerario": "S",
      "client": 98,
      "direction": "I"
    },
    {
      "code": "R139",
      "line": "48",
      "name": "T B",
      "color": "#ff0000",
      "lat": "-33.107753",
      "lon": "-64.394747",
      "stop_name": "Ruta 30 (BnS. Esteban a Soles)",
      "curso": "5.2359877560",
      "itinerario": "S",
      "client": 98,
      "direction": "I"
    },
    {
      "code": "R101",
      "line": "48",
      "name": "T B",
      "color": "#ff0000",
      "lat": "-33.109735",
      "lon": "-64.382337",
      "stop_name": "Martin Fierro 310",
      "curso": "3.5953782591",
      "itinerario": "S",
      "client": 98,
      "direction": "I"
    },
    {
      "code": "R100",
      "line": "48",
      "name": "T B",
      "color": "#ff0000",
      "lat": "-33.112053",
      "lon": "-64.383147",
      "stop_name": " Martin Fierro 490",
      "curso": "3.4208453339",
      "itinerario": "S",
      "client": 98,
      "direction": "I"
    },
    {
      "code": "R095",
      "line": "48",
      "name": "T B",
      "color": "#ff0000",
      "lat": "-33.114672",
      "lon": "-64.384040",
      "stop_name": "Martin Fierro 690",
      "curso": "3.4208453339",
      "itinerario": "S",
      "client": 98,
      "direction": "I"
    },
    {
      "code": "R096",
      "line": "48",
      "name": "T B",
      "color": "#ff0000",
      "lat": "-33.114332",
      "lon": "-64.385695",
      "stop_name": "San Martin 2790",
      "curso": "4.9916416607",
      "itinerario": "S",
      "client": 98,
      "direction": "I"
    },
    {
      "code": "R098",
      "line": "48",
      "name": "T B",
      "color": "#ff0000",
      "lat": "-33.113630",
      "lon": "-64.389142",
      "stop_name": " San Martin y Calle 9  PL",
      "curso": "3.1066860685",
      "itinerario": "S",
      "client": 98,
      "direction": "I"
    },
    {
      "code": "R097",
      "line": "48",
      "name": "T B",
      "color": "#ff0000",
      "lat": "-33.114345",
      "lon": "-64.385770",
      "stop_name": "San Martin 2795",
      "curso": "1.8500490071",
      "itinerario": "S",
      "client": 98,
      "direction": "I"
    },
    {
      "code": "R093",
      "line": "48",
      "name": "T B",
      "color": "#ff0000",
      "lat": "-33.114855",
      "lon": "-64.383455",
      "stop_name": "San Martin 2650",
      "curso": "1.8151424221",
      "itinerario": "S",
      "client": 98,
      "direction": "I"
    },
    {
      "code": "R090",
      "line": "48",
      "name": "T B",
      "color": "#ff0000",
      "lat": "-33.115832",
      "lon": "-64.379578",
      "stop_name": "San Martin 2413",
      "curso": "1.8849555922",
      "itinerario": "S",
      "client": 98,
      "direction": "I"
    },
    {
      "code": "R087",
      "line": "48",
      "name": "T B",
      "color": "#ff0000",
      "lat": "-33.116295",
      "lon": "-64.377710",
      "stop_name": "San Martin 2285",
      "curso": "1.8500490071",
      "itinerario": "S",
      "client": 98,
      "direction": "I"
    },
    {
      "code": "R086",
      "line": "48",
      "name": "T B",
      "color": "#ff0000",
      "lat": "-33.116670",
      "lon": "-64.376127",
      "stop_name": "San Martin 2191",
      "curso": "1.8500490071",
      "itinerario": "S",
      "client": 98,
      "direction": "I"
    },
    {
      "code": "R130",
      "line": "48",
      "name": "T B",
      "color": "#ff0000",
      "lat": "-33.117242",
      "lon": "-64.373740",
      "stop_name": "San Martin 2015",
      "curso": "1.8500490071",
      "itinerario": "S",
      "client": 98,
      "direction": "I"
    },
    {
      "code": "R085",
      "line": "48",
      "name": "T B",
      "color": "#ff0000",
      "lat": "-33.117747",
      "lon": "-64.371618",
      "stop_name": "San Martin 1883",
      "curso": "1.8500490071",
      "itinerario": "S",
      "client": 98,
      "direction": "I"
    },
    {
      "code": "R082",
      "line": "48",
      "name": "T B",
      "color": "#ff0000",
      "lat": "-33.118503",
      "lon": "-64.368507",
      "stop_name": " San Martin 1695",
      "curso": "1.8500490071",
      "itinerario": "S",
      "client": 98,
      "direction": "I"
    },
    {
      "code": "R080",
      "line": "48",
      "name": "T B",
      "color": "#ff0000",
      "lat": "-33.119193",
      "lon": "-64.365615",
      "stop_name": "San Martin 1489",
      "curso": "1.8500490071",
      "itinerario": "S",
      "client": 98,
      "direction": "I"
    },
    {
      "code": "R077",
      "line": "48",
      "name": "T B",
      "color": "#ff0000",
      "lat": "-33.119963",
      "lon": "-64.362375",
      "stop_name": "San Martin 1295 ",
      "curso": "1.8500490071",
      "itinerario": "S",
      "client": 98,
      "direction": "I"
    },
    {
      "code": "R075",
      "line": "48",
      "name": "T B",
      "color": "#ff0000",
      "lat": "-33.120633",
      "lon": "-64.359527",
      "stop_name": "San Martin 1097",
      "curso": "1.8500490071",
      "itinerario": "S",
      "client": 98,
      "direction": "I"
    },
    {
      "code": "R073",
      "line": "48",
      "name": "T B",
      "color": "#ff0000",
      "lat": "-33.121210",
      "lon": "-64.357180",
      "stop_name": "San Martin 887",
      "curso": "1.8500490071",
      "itinerario": "S",
      "client": 98,
      "direction": "I"
    },
    {
      "code": "R071",
      "line": "48",
      "name": "T B",
      "color": "#ff0000",
      "lat": "-33.121732",
      "lon": "-64.355077",
      "stop_name": " San Martin 695",
      "curso": "1.8500490071",
      "itinerario": "S",
      "client": 98,
      "direction": "I"
    },
    {
      "code": "R069",
      "line": "48",
      "name": "T B",
      "color": "#ff0000",
      "lat": "-33.122175",
      "lon": "-64.353232",
      "stop_name": " San Martin 487",
      "curso": "1.8500490071",
      "itinerario": "S",
      "client": 98,
      "direction": "I"
    },
    {
      "code": "R066",
      "line": "48",
      "name": "T B",
      "color": "#ff0000",
      "lat": "-33.122617",
      "lon": "-64.351397",
      "stop_name": " San Martin 305",
      "curso": "1.8500490071",
      "itinerario": "S",
      "client": 98,
      "direction": "I"
    },
    {
      "code": "R062",
      "line": "48",
      "name": "T B",
      "color": "#ff0000",
      "lat": "-33.123150",
      "lon": "-64.348835",
      "stop_name": "San Martin 45 PL",
      "curso": "1.9896753473",
      "itinerario": "S",
      "client": 98,
      "direction": "I"
    },
    {
      "code": "R145",
      "line": "48",
      "name": "T B",
      "color": "#ff0000",
      "lat": "-33.123787",
      "lon": "-64.346497",
      "stop_name": "Belgrano 190",
      "curso": "1.9198621772",
      "itinerario": "S",
      "client": 98,
      "direction": "I"
    },
    {
      "code": "R153",
      "line": "48",
      "name": "T B",
      "color": "#ff0000",
      "lat": "-33.124938",
      "lon": "-64.345598",
      "stop_name": "Alberdi 780",
      "curso": "3.4208453339",
      "itinerario": "S",
      "client": 98,
      "direction": "I"
    },
    {
      "code": "R158",
      "line": "48",
      "name": "T B",
      "color": "#ff0000",
      "lat": "-33.126588",
      "lon": "-64.344603",
      "stop_name": " Bv. Roca 440",
      "curso": "2.4085543678",
      "itinerario": "S",
      "client": 98,
      "direction": "I"
    },
    {
      "code": "R161",
      "line": "48",
      "name": "T B",
      "color": "#ff0000",
      "lat": "-33.127745",
      "lon": "-64.343160",
      "stop_name": "Bv. Roca 610",
      "curso": "2.3387411977",
      "itinerario": "S",
      "client": 98,
      "direction": "I"
    },
    {
      "code": "R162",
      "line": "48",
      "name": "T B",
      "color": "#ff0000",
      "lat": "-33.129160",
      "lon": "-64.341390",
      "stop_name": "Bv. Roca 810",
      "curso": "2.3387411977",
      "itinerario": "S",
      "client": 98,
      "direction": "I"
    },
    {
      "code": "R165",
      "line": "48",
      "name": "T B",
      "color": "#ff0000",
      "lat": "-33.128540",
      "lon": "-64.337767",
      "stop_name": " Blvd. Ameghino 925",
      "curso": "0.7330382858",
      "itinerario": "S",
      "client": 98,
      "direction": "I"
    },
    {
      "code": "R190",
      "line": "48",
      "name": "T B",
      "color": "#ff0000",
      "lat": "-33.128425",
      "lon": "-64.335432",
      "stop_name": " Tucuman 380",
      "curso": "1.8500490071",
      "itinerario": "S",
      "client": 98,
      "direction": "I"
    },
    {
      "code": "R188",
      "line": "48",
      "name": "T B",
      "color": "#ff0000",
      "lat": "-33.129565",
      "lon": "-64.334848",
      "stop_name": "Pje. Alem (N) 15",
      "curso": "3.4557519189",
      "itinerario": "S",
      "client": 98,
      "direction": "I"
    },
    {
      "code": "R009",
      "line": "48",
      "name": "T B",
      "color": "#ff0000",
      "lat": "-33.131490",
      "lon": "-64.333887",
      "stop_name": "Entre Rios 490",
      "curso": "1.8500490071",
      "itinerario": "S",
      "client": 98,
      "direction": "I"
    },
    {
      "code": "R011",
      "line": "48",
      "name": "T B",
      "color": "#ff0000",
      "lat": "-33.132193",
      "lon": "-64.330893",
      "stop_name": "Entre Rios 690",
      "curso": "1.8500490071",
      "itinerario": "S",
      "client": 98,
      "direction": "I"
    },
    {
      "code": "R013",
      "line": "48",
      "name": "T B",
      "color": "#ff0000",
      "lat": "-33.132867",
      "lon": "-64.327882",
      "stop_name": "Entre Rios 890",
      "curso": "1.8151424221",
      "itinerario": "S",
      "client": 98,
      "direction": "I"
    },
    {
      "code": "R016",
      "line": "48",
      "name": "T B",
      "color": "#ff0000",
      "lat": "-33.133572",
      "lon": "-64.324915",
      "stop_name": " Entre Rios 1090",
      "curso": "1.8500490071",
      "itinerario": "S",
      "client": 98,
      "direction": "I"
    },
    {
      "code": "R018",
      "line": "48",
      "name": "T B",
      "color": "#ff0000",
      "lat": "-33.134302",
      "lon": "-64.321750",
      "stop_name": "Entre Rios 1290",
      "curso": "1.8500490071",
      "itinerario": "S",
      "client": 98,
      "direction": "I"
    },
    {
      "code": "R020",
      "line": "48",
      "name": "T B",
      "color": "#ff0000",
      "lat": "-33.135012",
      "lon": "-64.318682",
      "stop_name": "Entre Rios 1490",
      "curso": "1.8500490071",
      "itinerario": "S",
      "client": 98,
      "direction": "I"
    },
    {
      "code": "R024",
      "line": "48",
      "name": "T B",
      "color": "#ff0000",
      "lat": "-33.135790",
      "lon": "-64.315283",
      "stop_name": "Entre Rios 1710",
      "curso": "1.8500490071",
      "itinerario": "S",
      "client": 98,
      "direction": "I"
    },
    {
      "code": "R026",
      "line": "48",
      "name": "T B",
      "color": "#ff0000",
      "lat": "-33.136842",
      "lon": "-64.312652",
      "stop_name": "Pirovano 110 PL",
      "curso": "3.6302848441",
      "itinerario": "S",
      "client": 98,
      "direction": "I"
    }
  ],
  "color": "#f10410",
  "direction": "I",
  "notification": "",
  "notifications": []
}