{
  "route": [
    [
      -64.351185,
      -33.113335,
      1.71
    ],
    [
      -64.351033,
      -33.113227,
      1.501
    ],
    [
      -64.350945,
      -33.113112,
      0.803
    ],
    [
      -64.350908,
      -33.11304,
      1.431
    ],
    [
      -64.350772,
      -33.113003,
      2.618
    ],
    [
      -64.350572,
      -33.112922,
      2.374
    ],
    [
      -64.350515,
      -33.11278,
      1.85
    ],
    [
      -64.350333,
      -33.112735,
      2.059
    ],
    [
      -64.350127,
      -33.112788,
      3.735
    ],
    [
      -64.347447,
      -33.113383,
      3.526
    ],
    [
      -64.34688,
      -33.113508,
      4.119
    ],
    [
      -64.346833,
      -33.113608,
      6.074
    ],
    [
      -64.3468,
      -33.113793,
      5.899
    ],
    [
      -64.346753,
      -33.114275,
      6.493
    ],
    [
      -64.34683,
      -33.114605,
      6.772
    ],
    [
      -64.347153,
      -33.115782,
      6.597
    ],
    [
      -64.347265,
      -33.116225,
      6.772
    ],
    [
      -64.347397,
      -33.116497,
      7.33
    ],
    [
      -64.347603,
      -33.116675,
      7.994
    ],
    [
      -64.347783,
      -33.116852,
      7.016
    ],
    [
      -64.347773,
      -33.117083,
      5.341
    ],
    [
      -64.347577,
      -33.117247,
      4.014
    ],
    [
      -64.347295,
      -33.117272,
      2.653
    ],
    [
      -64.347055,
      -33.117133,
      1.292
    ],
    [
      -64.346982,
      -33.1169,
      12.252
    ],
    [
      -64.347085,
      -33.116655,
      11.833
    ],
    [
      -64.347098,
      -33.11638,
      0.384
    ],
    [
      -64.346362,
      -33.113805,
      0.663
    ],
    [
      -64.346188,
      -33.113562,
      1.396
    ],
    [
      -64.345847,
      -33.113315,
      1.815
    ],
    [
      -64.341942,
      -33.11062,
      1.641
    ],
    [
      -64.341607,
      -33.110313,
      1.431
    ],
    [
      -64.337227,
      -33.106255,
      1.152
    ],
    [
      -64.336903,
      -33.10585,
      1.396
    ],
    [
      -64.336683,
      -33.105667,
      1.676
    ],
    [
      -64.336208,
      -33.105287,
      1.501
    ],
    [
      -64.323915,
      -33.093913,
      1.187
    ],
    [
      -64.323602,
      -33.09358,
      1.466
    ],
    [
      -64.323333,
      -33.093418,
      1.676
    ],
    [
      -64.323133,
      -33.093292,
      1.361
    ],
    [
      -64.322993,
      -33.093072,
      0.768
    ],
    [
      -64.322835,
      -33.092842,
      0.977
    ],
    [
      -64.32257,
      -33.092633,
      1.885
    ],
    [
      -64.322177,
      -33.092507,
      2.827
    ],
    [
      -64.321657,
      -33.092498,
      3.142
    ],
    [
      -64.299247,
      -33.092417,
      3.142
    ],
    [
      -64.295852,
      -33.092567,
      3.421
    ],
    [
      -64.295638,
      -33.092613,
      3.665
    ],
    [
      -64.295483,
      -33.092693,
      4.503
    ],
    [
      -64.295385,
      -33.092783,
      4.747
    ],
    [
      -64.295088,
      -33.093102,
      4.957
    ],
    [
      -64.2948,
      -33.093433,
      4.677
    ],
    [
      -64.294558,
      -33.093535,
      3.072
    ],
    [
      -64.294277,
      -33.093425,
      1.71
    ],
    [
      -64.292025,
      -33.091877,
      1.71
    ],
    [
      -64.28851,
      -33.089222,
      0.733
    ],
    [
      -64.288357,
      -33.088957,
      0.908
    ],
    [
      -64.287897,
      -33.088553,
      1.78
    ],
    [
      -64.173457,
      -33.011715,
      1.955
    ],
    [
      -64.172882,
      -33.011513,
      2.688
    ],
    [
      -64.171657,
      -33.011263,
      2.164
    ],
    [
      -64.171108,
      -33.010933,
      1.745
    ],
    [
      -64.169753,
      -33.010015,
      1.745
    ],
    [
      -64.169082,
      -33.009603,
      1.955
    ],
    [
      -64.168853,
      -33.009455,
      1.78
    ],
    [
      -64.16607,
      -33.007477,
      1.501
    ],
    [
      -64.165695,
      -33.007042,
      1.012
    ],
    [
      -64.16516,
      -33.006252,
      1.187
    ],
    [
      -64.164928,
      -33.006003,
      1.466
    ],
    [
      -64.164365,
      -33.00557,
      1.745
    ],
    [
      -64.030118,
      -32.915233,
      2.025
    ],
    [
      -64.029423,
      -32.91496,
      2.478
    ],
    [
      -64.027923,
      -32.914538,
      2.269
    ],
    [
      -64.027532,
      -32.91429,
      2.059
    ],
    [
      -64.0273,
      -32.914135,
      1.85
    ],
    [
      -64.026765,
      -32.913752,
      1.606
    ],
    [
      -64.026702,
      -32.913682,
      1.222
    ],
    [
      -64.02663,
      -32.913558,
      0.733
    ],
    [
      -64.026625,
      -32.913537,
      0.733
    ],
    [
      -64.026665,
      -32.913453,
      10.961
    ],
    [
      -64.026748,
      -32.91333,
      0.175
    ],
    [
      -64.026653,
      -32.913255,
      0.768
    ],
    [
      -64.026553,
      -32.913222,
      1.326
    ],
    [
      -64.026098,
      -32.91321,
      5.341
    ],
    [
      -64.02609,
      -32.91322,
      4.957
    ],
    [
      -64.026052,
      -32.91324,
      3.456
    ],
    [
      -64.025868,
      -32.91318,
      1.71
    ],
    [
      -64.021688,
      -32.910347,
      1.501
    ],
    [
      -64.021343,
      -32.90999,
      1.222
    ],
    [
      -64.01996,
      -32.908288,
      1.641
    ],
    [
      -64.019308,
      -32.907842,
      1.815
    ],
    [
      -63.889713,
      -32.820527,
      2.583
    ],
    [
      -63.889288,
      -32.820513,
      3.351
    ],
    [
      -63.888888,
      -32.820542,
      3.002
    ],
    [
      -63.888593,
      -32.820423,
      1.466
    ],
    [
      -63.88849,
      -32.820177,
      0.035
    ],
    [
      -63.888515,
      -32.819917,
      12.427
    ],
    [
      -63.888462,
      -32.819625,
      0.768
    ],
    [
      -63.888252,
      -32.819373,
      1.571
    ],
    [
      -63.887938,
      -32.819147,
      1.78
    ],
    [
      -63.883873,
      -32.816475,
      2.059
    ],
    [
      -63.883388,
      -32.816265,
      2.269
    ],
    [
      -63.881472,
      -32.815582,
      2.059
    ],
    [
      -63.88101,
      -32.815298,
      1.745
    ],
    [
      -63.878992,
      -32.813943,
      1.745
    ],
    [
      -63.878625,
      -32.813672,
      1.292
    ],
    [
      -63.878582,
      -32.813505,
      12.147
    ],
    [
      -63.878722,
      -32.813383,
      10.367
    ],
    [
      -63.878913,
      -32.813385,
      8.447
    ],
    [
      -63.879048,
      -32.813477,
      7.121
    ],
    [
      -63.87905,
      -32.81358,
      5.725
    ],
    [
      -63.87938,
      -32.813857,
      4.957
    ],
    [
      -63.87938,
      -32.813857,
      4.957
    ],
    [
      -63.878353,
      -32.813502,
      1.71
    ],
    [
      -63.874173,
      -32.810665,
      1.536
    ],
    [
      -63.873333,
      -32.810078,
      1.745
    ],
    [
      -63.864863,
      -32.804323,
      1.571
    ],
    [
      -63.86444,
      -32.803922,
      1.326
    ],
    [
      -63.864053,
      -32.803433,
      1.117
    ],
    [
      -63.863403,
      -32.802622,
      1.431
    ],
    [
      -63.862775,
      -32.802143,
      1.78
    ],
    [
      -63.814668,
      -32.769457,
      1.955
    ],
    [
      -63.814008,
      -32.76916,
      2.339
    ],
    [
      -63.813332,
      -32.768963,
      2.583
    ],
    [
      -63.8117,
      -32.768582,
      2.339
    ],
    [
      -63.811077,
      -32.768303,
      1.99
    ],
    [
      -63.810502,
      -32.767942,
      1.78
    ],
    [
      -63.793092,
      -32.755807,
      1.78
    ],
    [
      -63.792773,
      -32.755525,
      1.117
    ],
    [
      -63.79273,
      -32.75534,
      11.868
    ],
    [
      -63.792883,
      -32.75524,
      9.948
    ],
    [
      -63.793062,
      -32.755243,
      8.866
    ],
    [
      -63.79317,
      -32.755317,
      7.261
    ],
    [
      -63.793198,
      -32.755395,
      6.318
    ],
    [
      -63.793475,
      -32.755622,
      8.343
    ],
    [
      -63.793523,
      -32.755648,
      7.505
    ],
    [
      -63.793532,
      -32.755677,
      6.004
    ],
    [
      -63.79338,
      -32.75592,
      4.887
    ],
    [
      -63.793145,
      -32.755865,
      1.85
    ],
    [
      -63.793028,
      -32.755793,
      1.85
    ],
    [
      -63.785177,
      -32.750452,
      1.536
    ],
    [
      -63.785135,
      -32.750407,
      1.815
    ],
    [
      -63.785072,
      -32.75032,
      1.641
    ],
    [
      -63.784165,
      -32.74971,
      1.815
    ],
    [
      -63.782612,
      -32.748637,
      1.641
    ],
    [
      -63.782245,
      -32.748375,
      1.815
    ],
    [
      -63.776,
      -32.744142,
      1.571
    ],
    [
      -63.775445,
      -32.7436,
      1.222
    ],
    [
      -63.774047,
      -32.74186,
      1.466
    ],
    [
      -63.773295,
      -32.741282,
      1.745
    ],
    [
      -63.718638,
      -32.704233,
      2.618
    ],
    [
      -63.71798,
      -32.704188,
      3.211
    ],
    [
      -63.71539,
      -32.704325,
      3.037
    ],
    [
      -63.714758,
      -32.704225,
      2.374
    ],
    [
      -63.714242,
      -32.703928,
      1.536
    ],
    [
      -63.713905,
      -32.703485,
      0.803
    ],
    [
      -63.713722,
      -32.702998,
      0.524
    ],
    [
      -63.713015,
      -32.701008,
      1.641
    ],
    [
      -63.709058,
      -32.698287,
      1.641
    ],
    [
      -63.708918,
      -32.697963,
      7.156
    ],
    [
      -63.708918,
      -32.697963,
      7.156
    ],
    [
      -63.709115,
      -32.698295,
      7.889
    ],
    [
      -63.709268,
      -32.698355,
      9.599
    ],
    [
      -63.709387,
      -32.698287,
      11.345
    ],
    [
      -63.709387,
      -32.698287,
      11.345
    ],
    [
      -63.709462,
      -32.698173,
      12.043
    ],
    [
      -63.709397,
      -32.69807,
      2.339
    ],
    [
      -63.709303,
      -32.698042,
      2.793
    ],
    [
      -63.708885,
      -32.697917,
      5.76
    ],
    [
      -63.70888,
      -32.697945,
      6.353
    ],
    [
      -63.708932,
      -32.69806,
      7.295
    ],
    [
      -63.709065,
      -32.698223,
      7.784
    ],
    [
      -63.709337,
      -32.698418,
      8.273
    ],
    [
      -63.709725,
      -32.698508,
      9.215
    ],
    [
      -63.709893,
      -32.698622,
      6.807
    ],
    [
      -63.70984,
      -32.698752,
      4.503
    ],
    [
      -63.709635,
      -32.698768,
      2.304
    ],
    [
      -63.709392,
      -32.69861,
      1.71
    ],
    [
      -63.708657,
      -32.69805,
      1.152
    ],
    [
      -63.708512,
      -32.697688,
      0.489
    ],
    [
      -63.708187,
      -32.696935,
      1.431
    ],
    [
      -63.707768,
      -32.696618,
      1.78
    ],
    [
      -63.5936,
      -32.618872,
      1.955
    ],
    [
      -63.5934,
      -32.618807,
      2.618
    ],
    [
      -63.59322,
      -32.618787,
      2.897
    ],
    [
      -63.592387,
      -32.618598,
      2.653
    ],
    [
      -63.592127,
      -32.618427,
      2.374
    ],
    [
      -63.591842,
      -32.618228,
      2.164
    ],
    [
      -63.591485,
      -32.617988,
      1.99
    ],
    [
      -63.591078,
      -32.617712,
      1.745
    ],
    [
      -63.580712,
      -32.610473,
      0.07
    ],
    [
      -63.580712,
      -32.610473,
      0.07
    ],
    [
      -63.580657,
      -32.610278,
      0.559
    ],
    [
      -63.58055,
      -32.610225,
      1.117
    ],
    [
      -63.580507,
      -32.610205,
      1.361
    ],
    [
      -63.580155,
      -32.610157,
      4.398
    ],
    [
      -63.57769,
      -32.608545,
      1.885
    ],
    [
      -63.577333,
      -32.608468,
      2.094
    ],
    [
      -63.577022,
      -32.608502,
      3.735
    ],
    [
      -63.576743,
      -32.608607,
      3.944
    ],
    [
      -63.576595,
      -32.608638,
      3.316
    ],
    [
      -63.576453,
      -32.608627,
      2.583
    ],
    [
      -63.57622,
      -32.608495,
      1.257
    ],
    [
      -63.576148,
      -32.608233,
      0
    ],
    [
      -63.576108,
      -32.607927,
      0.314
    ],
    [
      -63.57591,
      -32.607482,
      0.489
    ],
    [
      -63.575625,
      -32.607003,
      0.698
    ],
    [
      -63.575265,
      -32.606573,
      0.908
    ],
    [
      -63.574933,
      -32.60624,
      1.466
    ],
    [
      -63.57452,
      -32.605902,
      1.676
    ],
    [
      -63.572188,
      -32.604322,
      1.885
    ],
    [
      -63.486003,
      -32.545415,
      1.885
    ],
    [
      -63.483685,
      -32.544,
      2.304
    ],
    [
      -63.482035,
      -32.543457,
      2.094
    ],
    [
      -63.48153,
      -32.543168,
      1.815
    ],
    [
      -63.478547,
      -32.54111,
      1.815
    ],
    [
      -63.47832,
      -32.540953,
      2.094
    ],
    [
      -63.478253,
      -32.540942,
      2.932
    ],
    [
      -63.478187,
      -32.540907,
      2.758
    ],
    [
      -63.47814,
      -32.54087,
      2.478
    ],
    [
      -63.478088,
      -32.540833,
      2.234
    ],
    [
      -63.474182,
      -32.538132,
      1.78
    ],
    [
      -63.473467,
      -32.537618,
      1.571
    ],
    [
      -63.469892,
      -32.534357,
      1.745
    ],
    [
      -63.408713,
      -32.492482,
      2.025
    ],
    [
      -63.407975,
      -32.49218,
      2.339
    ],
    [
      -63.406327,
      -32.491612,
      2.129
    ],
    [
      -63.405697,
      -32.491267,
      1.815
    ],
    [
      -63.403897,
      -32.490067,
      1.641
    ],
    [
      -63.403363,
      -32.489643,
      1.641
    ],
    [
      -63.398695,
      -32.486267,
      1.361
    ],
    [
      -63.398418,
      -32.485942,
      1.152
    ],
    [
      -63.397667,
      -32.485062,
      1.361
    ],
    [
      -63.397228,
      -32.484682,
      1.676
    ],
    [
      -63.348638,
      -32.45138,
      1.955
    ],
    [
      -63.347855,
      -32.450905,
      1.78
    ],
    [
      -63.346462,
      -32.449912,
      1.466
    ],
    [
      -63.346002,
      -32.44943,
      1.292
    ],
    [
      -63.345527,
      -32.44894,
      1.501
    ],
    [
      -63.34496,
      -32.448503,
      1.745
    ],
    [
      -63.343853,
      -32.44779,
      1.99
    ],
    [
      -63.342145,
      -32.446842,
      1.78
    ],
    [
      -63.314267,
      -32.427758,
      1.955
    ],
    [
      -63.314267,
      -32.427758,
      1.955
    ],
    [
      -63.313983,
      -32.427712,
      3.107
    ],
    [
      -63.313412,
      -32.427682,
      2.059
    ],
    [
      -63.313277,
      -32.427488,
      0.244
    ],
    [
      -63.313233,
      -32.42723,
      0.768
    ],
    [
      -63.313033,
      -32.42699,
      1.466
    ],
    [
      -63.31222,
      -32.42623,
      1.78
    ],
    [
      -63.307052,
      -32.422617,
      1.606
    ],
    [
      -63.299603,
      -32.417512,
      1.78
    ],
    [
      -63.293818,
      -32.413617,
      1.99
    ],
    [
      -63.293072,
      -32.41329,
      2.339
    ],
    [
      -63.292307,
      -32.413073,
      2.618
    ],
    [
      -63.282995,
      -32.41137,
      2.827
    ],
    [
      -63.281918,
      -32.41128,
      3.002
    ],
    [
      -63.258285,
      -32.409757,
      2.827
    ],
    [
      -63.257768,
      -32.409623,
      2.618
    ],
    [
      -63.257315,
      -32.40943,
      2.409
    ],
    [
      -63.257065,
      -32.409327,
      2.199
    ],
    [
      -63.256858,
      -32.40925,
      2.374
    ],
    [
      -63.256702,
      -32.409268,
      4.503
    ],
    [
      -63.256593,
      -32.409433,
      5.306
    ],
    [
      -63.25648,
      -32.409608,
      5.096
    ],
    [
      -63.256377,
      -32.409728,
      4.922
    ],
    [
      -63.245977,
      -32.4215,
      5.236
    ],
    [
      -63.245913,
      -32.421602,
      5.061
    ],
    [
      -63.245727,
      -32.421627,
      2.688
    ],
    [
      -63.24547,
      -32.421555,
      2.513
    ],
    [
      -63.244075,
      -32.421098,
      2.339
    ],
    [
      -63.243415,
      -32.420953,
      2.513
    ],
    [
      -63.242842,
      -32.420917,
      2.723
    ],
    [
      -63.242373,
      -32.420933,
      2.932
    ],
    [
      -63.24207,
      -32.420937,
      2.513
    ],
    [
      -63.241823,
      -32.42079,
      1.71
    ],
    [
      -63.241553,
      -32.420608,
      1.885
    ],
    [
      -63.239822,
      -32.419467,
      1.71
    ],
    [
      -63.23953,
      -32.419275,
      1.885
    ],
    [
      -63.233132,
      -32.41526,
      1.501
    ],
    [
      -63.233092,
      -32.415213,
      1.187
    ],
    [
      -63.233033,
      -32.415052,
      0
    ],
    [
      -63.23304,
      -32.414995,
      0
    ],
    [
      -63.233154999999996,
      -32.414783,
      11.205
    ],
    [
      -63.23335,
      -32.414568,
      11.554
    ],
    [
      -63.233377,
      -32.41447,
      0.524
    ],
    [
      -63.233315,
      -32.414398,
      1.606
    ],
    [
      -63.23324,
      -32.414352,
      1.606
    ],
    [
      -63.232822,
      -32.414085,
      2.269
    ],
    [
      -63.232647,
      -32.414013,
      2.478
    ],
    [
      -63.2325,
      -32.414047,
      2.932
    ],
    [
      -63.232393,
      -32.414143,
      3.595
    ],
    [
      -63.232287,
      -32.414255,
      4.084
    ],
    [
      -63.23217,
      -32.41436,
      4.433
    ],
    [
      -63.232088,
      -32.414487,
      6.178
    ],
    [
      -63.232137,
      -32.41458,
      7.924
    ],
    [
      -63.232168,
      -32.414602,
      8.133
    ],
    [
      -63.2323,
      -32.414665,
      8.971
    ],
    [
      -63.232427,
      -32.414638,
      10.437
    ]
  ],
  "stops": [
    {
      "code": "CSH1",
      "line": "1",
      "name": "",
      "color": "#000000",
      "lat": "-33.092417",
      "lon": "-64.299247",
      "stop_name": "Cambio direction higueras",
      "curso": "3.1415926536",
      "itinerario": "S",
      "client": 98,
      "direction": "I"
    }
  ],
  "color": "#f10410",
  "direction": "I",
  "notification": "",
  "notifications": []
}