{
  "route": [
    [
      -64.340035,
      -33.108095,
      5.48
    ],
    [
      -64.341915,
      -33.1066,
      5.48
    ],
    [
      -64.344332,
      -33.104783,
      5.445
    ],
    [
      -64.346787,
      -33.10289,
      5.445
    ],
    [
      -64.3492,
      -33.101075,
      5.445
    ],
    [
      -64.351607,
      -33.099243,
      5.445
    ],
    [
      -64.353548,
      -33.097702,
      5.48
    ],
    [
      -64.353537,
      -33.096868,
      0
    ],
    [
      -64.353478,
      -33.094373,
      0.035
    ],
    [
      -64.353475,
      -33.092668,
      0
    ],
    [
      -64.35353,
      -33.09237,
      6.144
    ],
    [
      -64.352962,
      -33.092485,
      1.815
    ],
    [
      -64.351093,
      -33.092485,
      1.571
    ],
    [
      -64.35071,
      -33.092565,
      1.815
    ],
    [
      -64.35048,
      -33.092475,
      1.152
    ],
    [
      -64.347347,
      -33.092497,
      1.571
    ],
    [
      -64.343152,
      -33.092467,
      1.571
    ],
    [
      -64.34065,
      -33.09239,
      1.536
    ],
    [
      -64.340352,
      -33.092115,
      0.733
    ],
    [
      -64.340325,
      -33.09127,
      0.035
    ],
    [
      -64.34034,
      -33.090583,
      6.248
    ],
    [
      -64.340322,
      -33.089665,
      0.035
    ],
    [
      -64.34032,
      -33.089468,
      0
    ],
    [
      -64.338617,
      -33.089498,
      1.606
    ],
    [
      -64.335858,
      -33.089507,
      1.571
    ],
    [
      -64.332905,
      -33.089528,
      1.571
    ],
    [
      -64.331108,
      -33.08952,
      1.571
    ],
    [
      -64.329765,
      -33.089492,
      1.536
    ],
    [
      -64.329097,
      -33.089913,
      2.199
    ],
    [
      -64.328332,
      -33.090567,
      2.374
    ],
    [
      -64.327775,
      -33.090618,
      1.676
    ],
    [
      -64.327705,
      -33.09111,
      3.037
    ],
    [
      -64.32767,
      -33.092345,
      3.107
    ],
    [
      -64.329062,
      -33.092343,
      4.712
    ],
    [
      -64.333903,
      -33.092333000000004,
      4.712
    ],
    [
      -64.337347,
      -33.092308,
      4.712
    ],
    [
      -64.339933,
      -33.092288,
      4.712
    ],
    [
      -64.34045,
      -33.092712,
      3.944
    ],
    [
      -64.3417,
      -33.093918,
      3.84
    ],
    [
      -64.341175,
      -33.094313,
      2.304
    ],
    [
      -64.339245,
      -33.09577,
      2.304
    ],
    [
      -64.339027,
      -33.09556,
      0.733
    ],
    [
      -64.338297,
      -33.09492,
      0.768
    ],
    [
      -64.338143,
      -33.09477,
      0.698
    ],
    [
      -64.335942,
      -33.096498,
      2.339
    ],
    [
      -64.33326,
      -33.098563,
      2.304
    ],
    [
      -64.33117,
      -33.10011,
      2.304
    ]
  ],
  "stops": [
    {
      "code": "R610",
      "line": "47",
      "name": "R J",
      "color": "#6597e6",
      "lat": "-33.108095",
      "lon": "-64.340035",
      "stop_name": "Isabel la Catolica 10 PT-CS PL",
      "curso": "5.4803338513",
      "itinerario": "S",
      "client": 98,
      "direction": "I"
    },
    {
      "code": "R613",
      "line": "47",
      "name": "R J",
      "color": "#6597e6",
      "lat": "-33.106600",
      "lon": "-64.341915",
      "stop_name": " Isabel La Catolica 190",
      "curso": "5.4803338513",
      "itinerario": "S",
      "client": 98,
      "direction": "I"
    },
    {
      "code": "R001",
      "line": "47",
      "name": "R J",
      "color": "#6597e6",
      "lat": "-33.104783",
      "lon": "-64.344332",
      "stop_name": "Isabel la Catolica 390",
      "curso": "5.4454272662",
      "itinerario": "S",
      "client": 98,
      "direction": "I"
    },
    {
      "code": "R623",
      "line": "47",
      "name": "R J",
      "color": "#6597e6",
      "lat": "-33.102890",
      "lon": "-64.346787",
      "stop_name": "Isabel la Catolica 590",
      "curso": "5.4454272662",
      "itinerario": "S",
      "client": 98,
      "direction": "I"
    },
    {
      "code": "R625",
      "line": "47",
      "name": "R J",
      "color": "#6597e6",
      "lat": "-33.101075",
      "lon": "-64.349200",
      "stop_name": " Isabel La Catolica 790",
      "curso": "5.4454272662",
      "itinerario": "S",
      "client": 98,
      "direction": "I"
    },
    {
      "code": "R628",
      "line": "47",
      "name": "R J",
      "color": "#6597e6",
      "lat": "-33.099243",
      "lon": "-64.351607",
      "stop_name": " Isabel La Catolica 990",
      "curso": "5.4454272662",
      "itinerario": "S",
      "client": 98,
      "direction": "I"
    },
    {
      "code": "R631",
      "line": "47",
      "name": "R J",
      "color": "#6597e6",
      "lat": "-33.096868",
      "lon": "-64.353537",
      "stop_name": "Tierra del Fuego 510",
      "curso": "0.0000000000",
      "itinerario": "S",
      "client": 98,
      "direction": "I"
    },
    {
      "code": "R632",
      "line": "47",
      "name": "R J",
      "color": "#6597e6",
      "lat": "-33.094373",
      "lon": "-64.353478",
      "stop_name": " Tierra del Fuego 750",
      "curso": "0.0349065850",
      "itinerario": "S",
      "client": 98,
      "direction": "I"
    },
    {
      "code": "R635",
      "line": "47",
      "name": "R J",
      "color": "#6597e6",
      "lat": "-33.092668",
      "lon": "-64.353475",
      "stop_name": "Tierra del Fuego 850",
      "curso": "0.0000000000",
      "itinerario": "S",
      "client": 98,
      "direction": "I"
    },
    {
      "code": "R638",
      "line": "47",
      "name": "R J",
      "color": "#6597e6",
      "lat": "-33.092485",
      "lon": "-64.351093",
      "stop_name": "Bv. Bouteler entrada M. Abasto",
      "curso": "1.5707963268",
      "itinerario": "S",
      "client": 98,
      "direction": "I"
    },
    {
      "code": "R620",
      "line": "47",
      "name": "R J",
      "color": "#6597e6",
      "lat": "-33.092497",
      "lon": "-64.347347",
      "stop_name": "Bv. Bouteler 1105",
      "curso": "1.5707963268",
      "itinerario": "S",
      "client": 98,
      "direction": "I"
    },
    {
      "code": "R671",
      "line": "47",
      "name": "R J",
      "color": "#6597e6",
      "lat": "-33.092467",
      "lon": "-64.343152",
      "stop_name": "Bv. Bouteler 905",
      "curso": "1.5707963268",
      "itinerario": "S",
      "client": 98,
      "direction": "I"
    },
    {
      "code": "R658",
      "line": "47",
      "name": "R J",
      "color": "#6597e6",
      "lat": "-33.092115",
      "lon": "-64.340352",
      "stop_name": "Cardarelli 2110",
      "curso": "0.7330382858",
      "itinerario": "S",
      "client": 98,
      "direction": "I"
    },
    {
      "code": "R656",
      "line": "47",
      "name": "R J",
      "color": "#6597e6",
      "lat": "-33.089665",
      "lon": "-64.340322",
      "stop_name": "Cardarelli 2290",
      "curso": "0.0349065850",
      "itinerario": "S",
      "client": 98,
      "direction": "I"
    },
    {
      "code": "R654",
      "line": "47",
      "name": "R J",
      "color": "#6597e6",
      "lat": "-33.089498",
      "lon": "-64.338617",
      "stop_name": "17 de Octubre y Pampas (a Las Golondrinas)",
      "curso": "1.6057029118",
      "itinerario": "S",
      "client": 98,
      "direction": "I"
    },
    {
      "code": "R652",
      "line": "47",
      "name": "R J",
      "color": "#6597e6",
      "lat": "-33.089507",
      "lon": "-64.335858",
      "stop_name": "17 de Octubre y Araucanos (a Las Golondrinas)",
      "curso": "1.5707963268",
      "itinerario": "S",
      "client": 98,
      "direction": "I"
    },
    {
      "code": "R650",
      "line": "47",
      "name": "R J",
      "color": "#6597e6",
      "lat": "-33.089528",
      "lon": "-64.332905",
      "stop_name": "17 de Octubre y Yamanas (a Las Golondrinas)",
      "curso": "1.5707963268",
      "itinerario": "S",
      "client": 98,
      "direction": "I"
    },
    {
      "code": "R648",
      "line": "47",
      "name": "R J",
      "color": "#6597e6",
      "lat": "-33.089520",
      "lon": "-64.331108",
      "stop_name": "17 de Octubre y Aymaras (a Las Golondrinas)",
      "curso": "1.5707963268",
      "itinerario": "S",
      "client": 98,
      "direction": "I"
    },
    {
      "code": "R646",
      "line": "47",
      "name": "R J",
      "color": "#6597e6",
      "lat": "-33.089913",
      "lon": "-64.329097",
      "stop_name": "Alacalufes (a Las Golondrinas)",
      "curso": "2.1991148575",
      "itinerario": "S",
      "client": 98,
      "direction": "I"
    },
    {
      "code": "R645",
      "line": "47",
      "name": "R J",
      "color": "#6597e6",
      "lat": "-33.090618",
      "lon": "-64.327775",
      "stop_name": "Vuelta de Obligado 255",
      "curso": "1.6755160819",
      "itinerario": "S",
      "client": 98,
      "direction": "I"
    },
    {
      "code": "R643",
      "line": "47",
      "name": "R J",
      "color": "#6597e6",
      "lat": "-33.092343",
      "lon": "-64.329062",
      "stop_name": "Bv. Bouteler 260",
      "curso": "4.7123889804",
      "itinerario": "S",
      "client": 98,
      "direction": "I"
    },
    {
      "code": "R662",
      "line": "47",
      "name": "R J",
      "color": "#6597e6",
      "lat": "-33.092333",
      "lon": "-64.333903",
      "stop_name": "Bv. Bouteler 610",
      "curso": "4.7123889804",
      "itinerario": "S",
      "client": 98,
      "direction": "I"
    },
    {
      "code": "R665",
      "line": "47",
      "name": "R J",
      "color": "#6597e6",
      "lat": "-33.092308",
      "lon": "-64.337347",
      "stop_name": "Bv. Bouteler y Huarpes",
      "curso": "4.7123889804",
      "itinerario": "S",
      "client": 98,
      "direction": "I"
    },
    {
      "code": "R669",
      "line": "47",
      "name": "R J",
      "color": "#6597e6",
      "lat": "-33.092712",
      "lon": "-64.340450",
      "stop_name": "Payro 1355 IPV",
      "curso": "3.9444441095",
      "itinerario": "N",
      "client": 98,
      "direction": "I"
    },
    {
      "code": "R674",
      "line": "47",
      "name": "R J",
      "color": "#6597e6",
      "lat": "-33.094313",
      "lon": "-64.341175",
      "stop_name": "Peru 765",
      "curso": "2.3038346126",
      "itinerario": "S",
      "client": 98,
      "direction": "I"
    },
    {
      "code": "R677",
      "line": "47",
      "name": "R J",
      "color": "#6597e6",
      "lat": "-33.095560",
      "lon": "-64.339027",
      "stop_name": "Eduardo Jenner 1210",
      "curso": "0.7330382858",
      "itinerario": "S",
      "client": 98,
      "direction": "I"
    },
    {
      "code": "R678",
      "line": "47",
      "name": "R J",
      "color": "#6597e6",
      "lat": "-33.094920",
      "lon": "-64.338297",
      "stop_name": "Eduardo Jenner 1290",
      "curso": "0.7679448709",
      "itinerario": "S",
      "client": 98,
      "direction": "I"
    },
    {
      "code": "R700",
      "line": "47",
      "name": "R J",
      "color": "#6597e6",
      "lat": "-33.096498",
      "lon": "-64.335942",
      "stop_name": "Mozart 405",
      "curso": "2.3387411977",
      "itinerario": "S",
      "client": 98,
      "direction": "I"
    },
    {
      "code": "R702",
      "line": "47",
      "name": "R J",
      "color": "#6597e6",
      "lat": "-33.098563",
      "lon": "-64.333260",
      "stop_name": " Mozart 195",
      "curso": "2.3038346126",
      "itinerario": "S",
      "client": 98,
      "direction": "I"
    },
    {
      "code": "R706",
      "line": "47",
      "name": "R J",
      "color": "#6597e6",
      "lat": "-33.100110",
      "lon": "-64.331170",
      "stop_name": "Mozart 15 PL",
      "curso": "2.3038346126",
      "itinerario": "S",
      "client": 98,
      "direction": "I"
    }
  ],
  "color": "#f10410",
  "direction": "I",
  "notification": "",
  "notifications": []
}